
{
    "startHour":"9",
    "endHour":"20",
    "undergrad_tas":[
        {
            "name":"Aarin Chase",
            "email":"aarin.chase@stonybrook.edu"
        },
        {
            "name":"Abu Saeid",
            "email":"asm.abdulkader@stonybrook.edu"
        },
        {
            "name":"Ali Afzal",
            "email":"ali.afzal@stonybrook.edu"
        },
        {
            "name":"Anthony Roy",
            "email":"anthony.roy@stonybrook.edu"
        },
        {
            "name":"Bryan Robicheau",
            "email":"bryan.robicheau@stonybrook.edu"
        },
        {
            "name":"Calvin Cheng",
            "email":"calvin.cheng@stonybrook.edu"
        },
        {
            "name":"Chaeyoung Lee",
            "email":"chaeyoung.lee@stonybrook.edu"
        },
        {
            "name":"Hsiang-Ju Lai",
            "email":"hsiang-ju.lai@stonybrook.edu"
        },
        {
            "name":"Jacob Evans",
            "email":"jacob.evans@stonybrook.edu"
        },
        {
            "name":"James Hoffman",
            "email":"james.a.hoffman@stonybrook.edu"
        },
        {
            "name":"Jamie Kunzmann",
            "email":"jamie.kunzmann@stonybrook.edu"
        },
        {
            "name":"Jenny Li",
            "email":"jenny.li@stonybrook.edu"
        },
        {
            "name":"Jerrel Sogoni",
            "email":"jerrel.sogoni@stonybrook.edu"
        },
        {
            "name":"Michael Mathew",
            "email":"michael.mathew@stonybrook.edu"
        },
        {
            "name":"Milto Ndrenika",
            "email":"milto.ndrenika@stonybrook.edu"
        },
        {
            "name":"Muhammad R Islam",
            "email":"muhammad.r.islam@stonybrook.edu"
        },
        {
            "name":"SomeRandom Name",
            "email":"robert.trujillo@stonybrook.edu"
        },
        {
            "name":"Serge Crane",
            "email":"serge.crane@stonybrook.edu"
        },
        {
            "name":"Wonje Kang",
            "email":"wonje.kang@stonybrook.edu"
        },
        {
            "name":"Wonyong Jeong",
            "email":"wonyon.jeong@stonybrook.edu"
        },
        {
            "name":"Yu Zhao",
            "email":"yu.zhao@stonybrook.edu"
        }
    ],
    "officeHours":[
        {
            "day":"TUESDAY",
            "time":"3_00pm",
            "name":"SomeRandom Name"
        }
    ]
}